SilberhornMdB,951489275312443392
Mi_Muentefering,947740210036641793
RitaHaglKehl,836553428042141697
SvenjaSchulze68,757979230244368385
LambrechtMdB,712207722301751296
katarinabarley,4097559143
StSLindner,3466243697
AdlerGunther,2902652169
Thomas_Bareiss,2797812265
AnjaKarliczek,2521976694
AnetteKramme,1461705757
MiRo_SPD,1114675538
JochenFlasbarth,596625618
guenterkrings,392312829
MJaegerT,392036484
W_Schmidt_,388237790
peteraltmaier,378693834
LangeMdB,328939758
jensspahn,299650387
RegSprecher,234343491
DoroBaer,140821364
fuchtel,66750542
zierke,64220313
thomasgebhart,51483238
rischwasu,50932086
AndiScheuer,50315139
NielsAnnen,42401449
KerstinGriese,39709752
OlafScholz,38150247
ChristianHirte,37642893
meister_schafft,34214048
JuliaKloeckner,29858729
HeikoMaas,24158261
SteffenBilger,23925041
petertauber,22260144
FlorianPronold,19257571
HBraun,19108071
BoehningB,17819913
wanderwitz,16361044
hubertus_heil,15943222
