StefanPauluhn,988115321704853505
lutzhecker_mdl,958701463538106376
SarahGillen_MdL,854701959894495232
DennisLander,826904190765129730
reinerzimmerhsw,817342623723778048
kurtz_hp,743765731406405632
r_schaefer81,1686609871
DIELINKEUMWELT,1383197616
Juergen_Renner,1187330798
RalfGeorgi,769419348
AnkeRehlinger,474792689
peter_strobel,464816248
Stephan_Toscani,226945659
MarcSpeicher,112765158
klausbouillon,90607386
alwintheobald,70792332
alexzeyer,65000163
TimoMildau,49443395
SaschaZehner,47898894
rolandtheis,33218960
tobiashans,19751955
UlrichCommercon,18250754
