thomaskutschaty,991594463905681409
johannes_remmel,976766655174008832
Ruediger_Weiss,953680001647480832
Heike_Wermer,913317792342036480
MdlMarc,883313551523401729
MartinaHannen,880855667489296384
m_dueker,869253066616430593
sonjabongers,856937089505656836
ChristianBlex,855339513198952448
K_Rudolph_SPD,845383469932957696
Strotebeck_AfD,845268025163104257
thomasroecke,834051722347737089
MuellerWitt_MdL,831447556987166721
nrw_sw2017,830011603202486272
Vincentz_AfD,823956107370577922
stefanlenzennrw,822854900933656576
Schmeltzer_NRW,821109114264842240
TrolesHeike,816956918006743042
ALueckMdL,816216216662589440
CDahmMdL,816208307383914496
jochen_klenner,816033911797141505
AnjaButschkau,774603635095404544
PatriciaPeill,765540998487367685
StephenPaulMdL,759152174433767424
OKehrl,746363731936968704
NettekovenJens,740460717862727680
Gebauer_CDU,739782574353043456
Fabian_Schrumpf,736638316976721921
Wagner_AfD_MdL,726815926205698050
Iris_AfD_MdL,724684363737227265
HendrikWuest,724509927952277504
WatermannKrass,719864534845038592
ante_terhaag,719096612610576384
carsten_loecker,715487735989940224
RogerBeckamp,4755310637
LangguthAlex,4188531875
mue_re,3307929051
NicVogel_AfD,3253929754
berivan_aymaz,3122315198
DuesselSchmitz,3093188508
ThomasNueckel,3072215341
RalphBombis,2882429181
BjoernFranken,2740649597
Loose_AfD,2688079904
DiekhoffMarkus,2455637086
AKossiski,2430868498
AjahlArmin,2429344270
baran_volkan,1479540692
GWalgerDemolsky,1307536645
MarcusPretzell,1274709210
mostofiz,1222203972
becker_horst,1106221621
c_kampmann,1037134387
petelkau,986910162
MOptendrenk,955680390
ArminLaschet,835541664
SusaSchneider,799728751
AStullich,780700207
effe1900,572120446
PeterBiesenbach,560151919
Chris_Rasche,543531211
philipp_fuer_DU,540642431
AndreasBeckerRE,532919150
santosherrmann,505667178
JosefinePaul,455100118
StefanZimkeit,301611880
sebwatermeier,299104551
norwichruesse,142297875
Alexbrockmeier,141585108
twittschler,136714528
JoachimStamp,127031150
JosefSPD,123270642
GregorGolland,113075930
Daniel_Sieveke,112558572
koppherr,111044287
alexander_vogt,110945147
GordanDudas,108067740
IbrahimYetim,105543485
voussem,102947307
Michael_Huebner,101343305
fortmeier2,98807288
Dennis_Maelzer,92619818
RainerDeppe,91579978
ABialas,90497993
Ruediger_Scholz,89973000
ingeblask,84673118
svenwolf,79136768
marc_herter,78302044
marcelhafke,77193478
lorenzdeutsch,63667034
DrStefanBerger,46128473
MarcLuerbke,45526030
klartextmueller,44579475
EWiRahe,43284158
marcovoge,34859023
st_kaemmerling,33027761
matthias1979,30204974
brockes,30038463
ChristianMangen,29978912
bodoloettgen,24670422
henninghoene,23350512
flobraun,22288580
frank_mueller,22128546
moritzkoerner,21794101
JoergGeerlings,21383942
Engstfelder,20316459
beerenstark,19455453
DietmarBell,19059408
Arndt_Klocke,18839279
joernfreynick,18424211
wibkegt,17809381
matthi_bolte,17128288
schaeffer_nrw,16594906
RainerMatheisen,15996968
jochenott,15580217
schneider_rene,15557314
